{
  "commercial": {
    "list": [
      {
        "id": "775445292",
        "enabled": true,
        "icon": "RiOpenArmLine",
        "nameLink": "Спортзал/фитнес-центр Black Gym",
        "mainInfo": {
          "title": "Black Gym",
          "description": "Спортзал/фитнес-центр",
          "urlForBackgroundImage": "https://firebasestorage.googleapis.com/v0/b/tesemnikov-8599f.appspot.com/o/machulishi%2Finstitutions%2Fcommercial%2Fblack_gym%2FXXXL.jpeg?alt=media&token=6bbfb1e4-5bff-40ae-a094-b0f5a067337d",
          "ratingInfo": {
            "color": "#118c43",
            "rating": "5",
            "title": "Рейтинг",
            "description": [""],
            "problems": [],
            "thanks": []
          }
        },
        "tabMain": {
          "tabName": "Услуги",
          "title": "Услуги",
          "servicesList": {
            "enabled": true,
            "title": "Услуги которые мы предоставляем:",
            "services": [
              {
                "id": 0,
                "title": "Настольный теннис",
                "aboutServices": [
                  {
                    "id": 0,
                    "cost": "5р / час",
                    "time": [
                      "ПН - ПТ: 13.00 - 16.00",
                      "СБ: 13.00 - 20.00",
                      "ВС: 13.00 - 18.00"
                    ],
                    "descr": "Многофункциональные тренировки"
                  }
                ]
              }
            ]
          },
          "servicesTable": {
            "enabled": true,
            "title": "Таблица Абонементов",
            "descr": "",
            "table": {
              "firstName": "Абонемент занятий в месяц",
              "secondName": "Стоимость,руб",
              "valuesForTable": [
                {
                  "first": "4 занятия",
                  "second": "23р",
                  "color": ""
                },
                {
                  "first": "8 занятий",
                  "second": "45р",
                  "color": ""
                },
                {
                  "first": "10 занятий",
                  "second": "50р",
                  "color": ""
                },
                {
                  "first": "Безлимитный 'Standart'",
                  "second": "60р",
                  "color": ""
                },
                {
                  "first": "Безлимитный 'Family' [2 чел / 4 чел]",
                  "second": "110р / 200р",
                  "color": ""
                },
                {
                  "first": "Прочие услуги:",
                  "second": " ",
                  "color": ""
                },
                {
                  "first": "Занятие с тренером",
                  "second": "7р / час",
                  "color": ""
                },
                {
                  "first": "Тейпирование",
                  "second": "от 12,5р / зона",
                  "color": ""
                },
                {
                  "first": "Составление индивидуальной диеты + рекомендации",
                  "second": "70р",
                  "color": ""
                }
              ]
            },
            "descrForTable": [
              "* Срок действия абонемента - 1 месяц",
              "* - в случае болезни и непредвиденных обстоятельств форс-мажорного характера абонемент продлевается с предъявлением справки либо соответствующего документа на данный период"
            ]
          },
          "gallery": {
            "enabled": true,
            "listImages": [
              {
                "id": 0,
                "imageMobile": "https://firebasestorage.googleapis.com/v0/b/tesemnikov-8599f.appspot.com/o/machulishi%2Finstitutions%2Fcommercial%2Fblack_gym%2Fgallery%2Fgym1.webp?alt=media&token=be26fdad-c474-4683-b2a4-5576d7f2a516",
                "image": "https://firebasestorage.googleapis.com/v0/b/tesemnikov-8599f.appspot.com/o/machulishi%2Finstitutions%2Fcommercial%2Fblack_gym%2Fgallery%2Fgym1.webp?alt=media&token=be26fdad-c474-4683-b2a4-5576d7f2a516",
                "inNewTab": false,
                "title": "1",
                "description": "",
                "url": "/"
              },
              {
                "id": 1,
                "imageMobile": "https://firebasestorage.googleapis.com/v0/b/tesemnikov-8599f.appspot.com/o/machulishi%2Finstitutions%2Fcommercial%2Fblack_gym%2Fgallery%2Fgym2.webp?alt=media&token=01dd3511-252c-4752-9441-899a4f9dec95",
                "image": "https://firebasestorage.googleapis.com/v0/b/tesemnikov-8599f.appspot.com/o/machulishi%2Finstitutions%2Fcommercial%2Fblack_gym%2Fgallery%2Fgym2.webp?alt=media&token=01dd3511-252c-4752-9441-899a4f9dec95",
                "inNewTab": false,
                "title": "2",
                "description": "",
                "url": "/"
              },
              {
                "id": 2,
                "imageMobile": "https://firebasestorage.googleapis.com/v0/b/tesemnikov-8599f.appspot.com/o/machulishi%2Finstitutions%2Fcommercial%2Fblack_gym%2Fgallery%2Fgym3.webp?alt=media&token=d2732e77-68ef-4f87-8147-c1f9e7db102a",
                "image": "https://firebasestorage.googleapis.com/v0/b/tesemnikov-8599f.appspot.com/o/machulishi%2Finstitutions%2Fcommercial%2Fblack_gym%2Fgallery%2Fgym3.webp?alt=media&token=d2732e77-68ef-4f87-8147-c1f9e7db102a",
                "inNewTab": false,
                "title": "3",
                "description": "",
                "url": "/"
              },
              {
                "id": 3,
                "imageMobile": "https://firebasestorage.googleapis.com/v0/b/tesemnikov-8599f.appspot.com/o/machulishi%2Finstitutions%2Fcommercial%2Fblack_gym%2Fgallery%2Fgym4.webp?alt=media&token=d6d3ccd9-85af-4941-8417-7fa723fee29d",
                "image": "https://firebasestorage.googleapis.com/v0/b/tesemnikov-8599f.appspot.com/o/machulishi%2Finstitutions%2Fcommercial%2Fblack_gym%2Fgallery%2Fgym4.webp?alt=media&token=d6d3ccd9-85af-4941-8417-7fa723fee29d",
                "inNewTab": false,
                "title": "4",
                "description": "",
                "url": "/"
              },
              {
                "id": 4,
                "imageMobile": "https://firebasestorage.googleapis.com/v0/b/tesemnikov-8599f.appspot.com/o/machulishi%2Finstitutions%2Fcommercial%2Fblack_gym%2Fgallery%2Fgym5.webp?alt=media&token=a75bc94c-01e6-451c-aed9-57b342d0200b",
                "image": "https://firebasestorage.googleapis.com/v0/b/tesemnikov-8599f.appspot.com/o/machulishi%2Finstitutions%2Fcommercial%2Fblack_gym%2Fgallery%2Fgym5.webp?alt=media&token=a75bc94c-01e6-451c-aed9-57b342d0200b",
                "inNewTab": false,
                "title": "5",
                "description": "",
                "url": "/"
              },
              {
                "id": 5,
                "imageMobile": "https://firebasestorage.googleapis.com/v0/b/tesemnikov-8599f.appspot.com/o/machulishi%2Finstitutions%2Fcommercial%2Fblack_gym%2Fgallery%2Fgym6.webp?alt=media&token=67cf13cf-c3e0-44bb-a4d4-078f942fedc9",
                "image": "https://firebasestorage.googleapis.com/v0/b/tesemnikov-8599f.appspot.com/o/machulishi%2Finstitutions%2Fcommercial%2Fblack_gym%2Fgallery%2Fgym6.webp?alt=media&token=67cf13cf-c3e0-44bb-a4d4-078f942fedc9",
                "inNewTab": false,
                "title": "6",
                "description": "",
                "url": "/"
              },
              {
                "id": 6,
                "imageMobile": "https://firebasestorage.googleapis.com/v0/b/tesemnikov-8599f.appspot.com/o/machulishi%2Finstitutions%2Fcommercial%2Fblack_gym%2Fgallery%2Fgym7.webp?alt=media&token=af69b2f6-e538-40c1-88c0-5cf9fbea52d7",
                "image": "https://firebasestorage.googleapis.com/v0/b/tesemnikov-8599f.appspot.com/o/machulishi%2Finstitutions%2Fcommercial%2Fblack_gym%2Fgallery%2Fgym7.webp?alt=media&token=af69b2f6-e538-40c1-88c0-5cf9fbea52d7",
                "inNewTab": false,
                "title": "7",
                "description": "",
                "url": "/"
              }
            ],
            "title": "Галерея",
            "description": ""
          }
        },
        "tabInfo": {
          "tabName": "Информация",
          "title": "Информация",
          "description": {
            "enabled": true,
            "title": "ОПИСАНИЕ",
            "descr": "Спортзал/фитнес-центр",
            "icon": "info",
            "content": [
              {
                "title": "Спортзал/фитнес-центр",
                "descr": "",
                "style": false
              },
              {
                "title": "",
                "descr": "Многофункциональные тренировки",
                "style": false
              }
            ]
          },
          "contacts": {
            "enabled": false,
            "title": "КОНТАКТЫ",
            "descr": "",
            "icon": "contacts",
            "content": [
              {
                "title": "Регистратура взрослая:",
                "phoneNumber": "+ 375 17 504 45 27"
              },
              {
                "title": "Регистратура детская:",
                "phoneNumber": "+ 375 17 517 53 10"
              },
              {
                "title": "Педиатрический кабинет:",
                "phoneNumber": "+ 375 17 517 53 11"
              },
              {
                "title": "Старшая медсестра:",
                "phoneNumber": "+ 375 17 517 53 12"
              },
              {
                "title": "Доврачебный кабинет:",
                "phoneNumber": "+ 375 17 517 53 13"
              }
            ]
          },
          "schedule": {
            "enabled": false,
            "title": "РЕЖИМ РАБОТЫ",
            "descr": "",
            "icon": "schedule",
            "content": [
              {
                "title": "Заголовок",
                "descr": "Описание",
                "dayOfWeek": "ПН - ПТ",
                "time": "13.00 - 22.00"
              },
              {
                "title": "",
                "descr": "",
                "dayOfWeek": "СБ - ВС",
                "time": "13.00 - 20.00"
              }
            ]
          },
          "address": {
            "enabled": true,
            "title": "АДРЕС",
            "descr": "",
            "icon": "address",
            "content": {
              "location": "Минская обл., Минский р-н., г.п Мачулищи ул. Героев 1, здание ГДО (вход с торца)",
              "url": "https://yandex.by/maps/157/minsk/house/Zk4YcAJhT0ADQFtpfXR3cntmYw==/?ll=27.651654%2C53.863758&z=17.7"
            }
          },
          "social": {
            "enabled": true,
            "title": "СОЦИАЛЬНЫЕ СЕТИ",
            "descr": "",
            "icon": "social",
            "content": [
              {
                "name": "instagram",
                "color": "#405DE6",
                "url": "https://www.instagram.com/black_gym_by/"
              },
              {
                "name": "telegram",
                "color": "#0088cc",
                "url": "https://t.me/blackgymgroop"
              }
            ]
          }
        }
      }
    ]
  }
}
