{
  "state": {
    "clinic": {
      "mainInfo": {
        "title": "Мачулищанская поликлиника",
        "rating": "",
        "urlForBackgroundImage": "https://firebasestorage.googleapis.com/v0/b/tesemnikov-8599f.appspot.com/o/machulishi%2Finstitutions%2Fstate%2Fclinic%2FclinicLogo.jpeg?alt=media&token=a215e420-6226-4fb0-ad96-910bc8bf70ce",
        "ratingInfo": {}
      },
      "tabMain": {
        "tabName": "Кабинеты",
        "title": "Кабинеты"
      },
      "tabInfo": {
        "tabName": "Информация",
        "title": "Информация",
        "description": {
          "enabled": true,
          "title": "ОПИСАНИЕ",
          "descr": "",
          "icon": "info",
          "content": [
            {
              "title": "",
              "descr": "Вышестоящее учреждение: Минская ЦРБ, Боровляны",
              "style": false
            },
            {
              "title": "",
              "descr": "Администрация: Авраменко Карина Анатольевна",
              "style": false
            }
          ]
        },
        "contacts": {
          "enabled": true,
          "title": "КОНТАКТЫ",
          "descr": "",
          "icon": "contacts",
          "content": [
            {
              "title": "Регистратура взрослая:",
              "phoneNumber": "+ 375 17 510 23 15"
            },
            {
              "title": "Регистратура детская:",
              "phoneNumber": "+ 375 17 517 53 10"
            },
            {
              "title": "Педиатрический кабинет:",
              "phoneNumber": "+ 375 17 517 53 11"
            },
            {
              "title": "Старшая медсестра:",
              "phoneNumber": "+ 375 17 517 53 12"
            },
            {
              "title": "Доврачебный кабинет:",
              "phoneNumber": "+ 375 17 517 53 13"
            }
          ]
        },
        "schedule": {
          "enabled": true,
          "title": "РЕЖИМ РАБОТЫ",
          "descr": "",
          "icon": "schedule",
          "content": [
            {
              "title": "Регистратура",
              "descr": "",
              "dayOfWeek": "ПН - ПТ",
              "time": "07.30 - 20.00"
            },
            {
              "title": "Регистратура",
              "descr": "",
              "dayOfWeek": "СБ",
              "time": "08.00 - 14.00"
            },
            {
              "title": "Дежурный терапевт",
              "descr": "по экстренной помощи",
              "dayOfWeek": "СБ",
              "time": "08.00 - 11.00"
            }
          ]
        },
        "address": {
          "enabled": true,
          "title": "АДРЕС",
          "descr": "",
          "icon": "address",
          "content": {
            "location": "Минская обл., Минский р-н., г.п Мачулищи ул. Центральная, 1",
            "url": "https://yandex.by/maps/157/minsk/house/Zk4YcAJhT0ADQFtpfXR3cntmYw==/?ll=27.651654%2C53.863758&z=17.7"
          }
        },
        "social": {
          "enabled": false,
          "title": "СОЦИАЛЬНЫЕ СЕТИ",
          "descr": "",
          "icon": "social",
          "content": [
            {
              "name": "vk",
              "color": "#000",
              "url": "/"
            }
          ]
        }
      }
    },
    "mail": {
      "mainInfo": {
        "title": "Белпочта",
        "urlForBackgroundImage": "https://firebasestorage.googleapis.com/v0/b/tesemnikov-8599f.appspot.com/o/machulishi%2Finstitutions%2Fstate%2Fbelpochta%2FmailLogo.jpeg?alt=media&token=db7e8111-e320-4126-b09b-c041df8ac220",
        "rating": "",
        "ratingInfo": {}
      },
      "tabMain": {
        "tabName": "Услуги",
        "title": "Услуги",
        "services": {
          "title": "К услугам почтовой связи относятся:",
          "list": [
            {
              "title": "прием, обработка, хранение, перевозка, доставка (вручение) почтовых отправлений;"
            },
            {
              "title": "досылка и возвращение почтовых отправлений;"
            },
            {
              "title": "ускоренная почта;"
            },
            {
              "title": "прием подписки на печатные средства массовой информации и их доставка;"
            },
            {
              "title": "переадресование выписанных подписчиками печатных средств массовой информации;"
            },
            {
              "title": "выплата пенсий, пособий, компенсаций и осуществление других социальных выплат;"
            },
            {
              "title": "упаковка письменной корреспонденции и посылок;"
            },
            {
              "title": "заполнение бланков сопроводительных адресов к почтовым отправлениям, описей вложения, бланков почтовых денежных переводов;"
            },
            {
              "title": "написание адресов и письменных сообщений;"
            },
            {
              "title": "предоставление в пользование абонементных почтовых ящиков;"
            },
            {
              "title": "оказание услуг почтовой связи на дому;"
            },
            {
              "title": "иные услуги, не запрещенные законодательством."
            }
          ]
        }
      },
      "tabInfo": {
        "tabName": "Информация",
        "title": "Информация",
        "description": {
          "enabled": true,
          "title": "ОПИСАНИЕ",
          "descr": "",
          "icon": "info",
          "content": [
            {
              "title": "",
              "descr": "Начальник почтового отделения - Шагойка Татьяна Григорьевна",
              "style": false
            }
          ]
        },
        "contacts": {
          "enabled": true,
          "title": "КОНТАКТЫ",
          "descr": "Индекс - 223012",
          "icon": "contacts",
          "content": [
            {
              "title": "Телефон:",
              "phoneNumber": "+ 375 17 517 80 35"
            },
            {
              "title": "Телефон:",
              "phoneNumber": "+ 375 17 517 80 36"
            }
          ]
        },
        "schedule": {
          "enabled": true,
          "title": "РЕЖИМ РАБОТЫ",
          "descr": "",
          "icon": "schedule",
          "content": [
            {
              "title": "",
              "descr": "Обед c 14.00 - 15.00",
              "dayOfWeek": "ВТ - СБ",
              "time": "09.00 - 19.00"
            },
            {
              "title": "Выходной",
              "descr": "",
              "dayOfWeek": "ВС - ПН",
              "time": ""
            }
          ]
        },
        "address": {
          "enabled": true,
          "title": "АДРЕС",
          "descr": "",
          "icon": "address",
          "content": {
            "location": "Минская обл., Минский р-н., г.п Мачулищи ул. Гвардейская 13",
            "url": "https://yandex.by/maps/org/belpochta/1071609537/?ll=27.596417%2C53.781560&z=17.63"
          }
        },
        "social": {
          "enabled": false,
          "title": "СОЦИАЛЬНЫЕ СЕТИ",
          "descr": "",
          "icon": "social",
          "content": [
            {
              "name": "vk",
              "color": "#000",
              "url": "/"
            }
          ]
        }
      }
    },
    "bank": {
      "mainInfo": {
        "title": "Беларусбанк",
        "urlForBackgroundImage": "https://firebasestorage.googleapis.com/v0/b/tesemnikov-8599f.appspot.com/o/machulishi%2Finstitutions%2Fstate%2Fbelarusbank%2Fbelarusbank-logo.jpeg?alt=media&token=6f3d488b-8174-4cec-8db3-4c915885b399",
        "rating": "",
        "ratingInfo": {}
      },
      "tabMain": {
        "tabName": "Услуги",
        "title": "Услуги",
        "services": {
          "title": "К услугам Беларусбанка относятся:",
          "list": [
            {
              "title": "вклады (депозиты) для физ.лиц"
            },
            {
              "title": "система строительных сбережений (заключение новых и сопровождение действующих договоров данного подразделения)"
            },
            {
              "title": "комплексный продукт «Свободный выбор»"
            },
            {
              "title": "операции по специальным избирательным счетам (пополнение, выдача денежных средств, закрытие, изменение данных владельца счета)"
            },
            {
              "title": "подключение услуг М-банкинг, Интернет-банкинг"
            },
            {
              "title": "оформление банковских платежных карточек для использования на территории РБ"
            },
            {
              "title": "клуб «Леди»"
            },
            {
              "title": "оформление международных банковских платежных карточек"
            },
            {
              "title": "карта учащегося"
            },
            {
              "title": "клуб «Бархат»"
            },
            {
              "title": "клуб #настарт"
            },
            {
              "title": "клуб «Персона»"
            },
            {
              "title": "клуб «Шчодры»"
            },
            {
              "title": "клуб «Карт-бланш»"
            },
            {
              "title": "выдача выписки по счету, к которому оформлена карточка"
            },
            {
              "title": "выдача наличных белорусских рублей с использованием карточки"
            },
            {
              "title": "выдача наличной иностранной валюты с использованием карточки"
            },
            {
              "title": "выдача наличных денежных средств без использования карточки"
            },
            {
              "title": "пополнение счета клиента без использования карточки"
            },
            {
              "title": "пополнение счета наличными белорусскими рублями с использованием карточки"
            },
            {
              "title": "пополнение счета наличной иностранной валютой с использованием карточки"
            },
            {
              "title": "перечисление (перевод) по реквизитам карточки на счет, к которому оформлена карточка ОАО «АСБ Беларусбанк»"
            },
            {
              "title": "прием заявлений, связанных с обслуживанием держателей карточек"
            },
            {
              "title": "прием документов и выдача кредитов по карточке рассрочки 'Магнит'"
            },
            {
              "title": "прием документов и выдача кредитов на потребительские нужды (овердрафты)"
            },
            {
              "title": "прием платежей и взносов в бел.руб. от юр.лиц и ИП"
            },
            {
              "title": "прием платежей и взносов в ин.вал. от юр.лиц и ИП"
            },
            {
              "title": "прием платежей от физ.лиц.\n\nподразделение принимает все виды платежей, за исключением платежей за мобильную связь и интернет"
            },
            {
              "title": "страхование гражданской ответственности владельцев транспортных средств"
            },
            {
              "title": "страхование домовладений и гражданской ответственности"
            },
            {
              "title": "страхование от несчастных случаев «С заботой о детях»"
            },
            {
              "title": "добровольное страхование транспортных средств граждан (КАСКО)"
            },
            {
              "title": "страхование от травм «Экспресс»"
            },
            {
              "title": "комплексное страхование имущества и гражданской ответственности"
            },
            {
              "title": "страхование банковских платежных карточек"
            },
            {
              "title": "добровольное страхование водителей и пассажиров от несчастных случаев"
            },
            {
              "title": "страхование от болезней и несчастных случаев во время поездки за границу"
            },
            {
              "title": "страхование гражд.ответственности владельцев транспортных средств Зеленая карта"
            },
            {
              "title": "добровольное страхование рисков вкладчиков по программе «Доход под защитой»"
            },
            {
              "title": "добровольное страхование от несчастных случаев и заболеваний «С заботой о близких»"
            },
            {
              "title": "страхование медицинских расходов по программе 'Защита от клеща'"
            },
            {
              "title": "валютно-обменные операции (покупка, продажа иностранной валюты)"
            },
            {
              "title": "размен, замена иностранной валюты"
            },
            {
              "title": "конверсия иностранной валюты"
            },
            {
              "title": "операции с документарными облигациями ОАО «АСБ Беларусбанк»"
            },
            {
              "title": "операции со сберегательными сертификатами ОАО «АСБ Беларусбанк»"
            },
            {
              "title": "погашение документарных облигаций Минфина РБ"
            },
            {
              "title": "размещение/продажа документарных облигаций Минфина РБ"
            },
            {
              "title": "международные банковские переводы SWIFT"
            },
            {
              "title": "реализация лотерейных билетов и выплата выигрышей по ним"
            },
            {
              "title": "получение карточки, оформленной через сайт банка"
            },
            {
              "title": "продажа памятных, слитковых (инвестиционных) монет"
            },
            {
              "title": "получение страхового полиса по заявке, оформленной через сайт банка"
            },
            {
              "title": "прием на проверку доверенностей и иных документов, оформленных вне банка"
            },
            {
              "title": "операции с денежными знаками РБ (обмен поврежденных (ветхих); размен)"
            },
            {
              "title": "прием ценностей на открытое банковское хранение"
            }
          ]
        }
      },
      "tabInfo": {
        "tabName": "Информация",
        "title": "Информация",
        "description": {
          "enabled": true,
          "title": "ОПИСАНИЕ",
          "descr": "",
          "icon": "info",
          "content": [
            {
              "title": "",
              "descr": "Отделение №500/5089",
              "style": false
            }
          ]
        },
        "contacts": {
          "enabled": true,
          "title": "КОНТАКТЫ",
          "descr": "",
          "icon": "contacts",
          "content": [
            {
              "title": "Телефон:",
              "phoneNumber": "+ 375 17 514 42 99"
            },
            {
              "title": "Телефон:",
              "phoneNumber": "+ 375 17 514 04 50"
            }
          ]
        },
        "schedule": {
          "enabled": true,
          "title": "РЕЖИМ РАБОТЫ",
          "descr": "",
          "icon": "schedule",
          "content": [
            {
              "title": "",
              "descr": "В предпраздничные дни продолжительность рабочего времени сокращается на один час. В праздничные дни отделение не работает.",
              "dayOfWeek": "ПН - ПТ",
              "time": "09.00 - 19.00"
            },
            {
              "title": "",
              "descr": "",
              "dayOfWeek": "СБ",
              "time": "09.00 - 15.00"
            },
            {
              "title": "",
              "descr": "",
              "dayOfWeek": "3ий ЧТ месяца",
              "time": "11.00 - 19.00"
            }
          ]
        },
        "address": {
          "enabled": true,
          "title": "АДРЕС",
          "descr": "",
          "icon": "address",
          "content": {
            "location": "Минская обл., Минский р-н., г.п Мачулищи ул. Молодежная 2a",
            "url": "https://yandex.by/maps/29630/minsk-district/house/Zk4YcAdgTUYFQFtpfXt5cXpmYQ==/?ll=27.599704%2C53.780666&z=17"
          }
        },
        "social": {
          "enabled": false,
          "title": "СОЦИАЛЬНЫЕ СЕТИ",
          "descr": "",
          "icon": "social",
          "content": [
            {
              "name": "vk",
              "color": "#000",
              "url": "/"
            }
          ]
        }
      }
    }
  }
}
