{
  "news": {
    "start": {
      "createAt": "30 мая 2022 в 10:35",
      "descr": [
        "Этот проект появился благодаря возможности, необходимости и человечности. Мы постараемся улучшить и облегчить вашу жизнь. Наш формат проекта позволит получать актуальную информацию. Каждый день сталкиваясь с необходимостью узнать информацию, мы будем стараться вам помочь. Наша команда состоит из волонтеров, благодаря им у вас будет возможность узнать телефон строительного, график работы поликлиники и т.д. Добавлять будем всё по мере необходимости и возможности.",
        "Новый формат подразумевает, что теперь есть рейтинг у каждого информационного ресурса, который предоставляет услуги. Модерация будет производиться через администрацию ресурса. Если у вас будут возникать трудности или проблемы, то вы сможете о них рассказать в группе поддержки (в конце статьи). Мы будем благодаря вам улучшать качество услуг. Рейтинг будет давать возможность узнать насколько можно доверять информации в данном разделе. Если рейтинг станет совсем низким, то разделу будет даваться период( 30 дней ) на исправление рейтинга. Если раздел с низким рейтингом не исправит свои ошибки, то будет удален с проекта.",
        "На данный момент из доступного есть расписание маршрутки, автобуса и информация о поликлинике(пока без графика кабинетов). Думали не запускать, пока не будет больше информации, но решили, что ожидая идеального момента не запустимся вовсе. О добавлении нового будут новости на главной.",
        "Это не коммерческий проект, поэтому здесь могут быть ошибки, относитесь к ним спокойнее). Над проектом работает один разработчик, будем стараться меньше разочаровывать вас!"
      ],
      "imgUrl": "https://firebasestorage.googleapis.com/v0/b/tesemnikov-8599f.appspot.com/o/news%2Fstart%2F124230_original.jpeg?alt=media&token=8ab6c6a5-341e-46b3-9dbf-b622ddbdcf32",
      "query": "name=Мы запустились!",
      "title": "Приветствуем всех Вас!",
      "url": "start",
      "telegram": {
        "color": "#229ED9",
        "url": "https://t.me/aksenby"
      },
      "titleForLinks": "Связаться с нами"
    }
  }
}
